# Channel Management API Contract

**Endpoint**: `GET /api/channels`  
**Method**: GET  
**Version**: 1.0  
**Feature**: Channel Management System

## Purpose
Retrieve a list of channels with optional filtering and pagination.

## Request

### Query Parameters
- `page` (optional): Page number for pagination (default: 1)
- `limit` (optional): Number of items per page (default: 20, max: 100)
- `search` (optional): Search term to filter channels by name or description
- `status` (optional): Filter by channel status (active, inactive, suspended)
- `sort` (optional): Sort field and direction (e.g., "name:asc", "created_at:desc")

### Headers
- `Authorization: Bearer <token>` - Required authentication token
- `Content-Type: application/json`

## Response

### Success Response (200 OK)
```json
{
  "data": [
    {
      "id": "uuid-string",
      "name": "Channel Name",
      "description": "Channel description",
      "status": "active",
      "contact_email": "contact@example.com",
      "contact_phone": "+1234567890",
      "created_at": "2025-10-11T10:00:00Z",
      "updated_at": "2025-10-11T10:00:00Z",
      "created_by": "uuid-string"
    }
  ],
  "pagination": {
    "page": 1,
    "limit": 20,
    "total": 100,
    "pages": 5
  }
}
```

### Error Responses
- `401 Unauthorized`: Invalid or missing authentication token
- `403 Forbidden`: User lacks permission to access channels
- `422 Unprocessable Entity`: Invalid query parameters

## Business Rules
- Only authenticated users can access channel data
- The search parameter performs partial matching on channel name and description
- Results are automatically sorted by creation date (newest first) if no sort parameter is provided
- Pagination is enforced with a maximum limit to prevent performance issues